{
  "version": "1.0",
  "defaultProvider": "unpkg",
  "libraries": [
    {
      "library": "jquery@3.7.0",
      "destination": "wwwroot/lib/jquery/",
      "files": [
        "LICENSE.txt",
        "dist/jquery.js",
        "dist/jquery.min.js",
        "dist/jquery.min.map"
      ]
    },
    {
      "library": "luxon@3.3.0",
      "destination": "wwwroot/lib/luxon/",
      "files": [
        "LICENSE.md",
        "build/global/luxon.js",
        "build/global/luxon.js.map",
        "build/global/luxon.min.js",
        "build/global/luxon.min.js.map"
      ]
    },
    {
      "library": "bootstrap@5.3.0",
      "destination": "wwwroot/lib/bootstrap/",
      "files": [
        "LICENSE",
        "dist/js/bootstrap.bundle.js",
        "dist/js/bootstrap.bundle.js.map",
        "dist/js/bootstrap.bundle.min.js",
        "dist/js/bootstrap.bundle.min.js.map",
        "dist/css/bootstrap.css",
        "dist/css/bootstrap.css.map",
        "dist/css/bootstrap.min.css",
        "dist/css/bootstrap.min.css.map",
        "scss/_functions.scss",
        "scss/_variables.scss",
        "scss/mixins/_breakpoints.scss"
      ]
    },
    {
      "library": "@fortawesome/fontawesome-free@6.4.0",
      "destination": "wwwroot/lib/fontawesome/",
      "files": [
        "LICENSE.txt",
        "css/all.css",
        "css/all.min.css",
        "webfonts/fa-brands-400.ttf",
        "webfonts/fa-brands-400.woff2",
        "webfonts/fa-regular-400.ttf",
        "webfonts/fa-regular-400.woff2",
        "webfonts/fa-solid-900.ttf",
        "webfonts/fa-solid-900.woff2",
        "webfonts/fa-v4compatibility.ttf",
        "webfonts/fa-v4compatibility.woff2"
      ]
    },
    {
      "library": "@microsoft/signalr@6.0.16",
      "destination": "wwwroot/lib/signalr/",
      "files": [
        "README.md",
        "dist/browser/signalr.js",
        "dist/browser/signalr.js.map",
        "dist/browser/signalr.min.js",
        "dist/browser/signalr.min.js.map"
      ]
    },
    {
      "provider": "unpkg",
      "library": "summernote@0.8.20",
      "destination": "wwwroot/lib/summernote/",
      "files": [
        "LICENSE",
        "dist/font/summernote.eot",
        "dist/font/summernote.hash",
        "dist/font/summernote.ttf",
        "dist/font/summernote.woff",
        "dist/font/summernote.woff2",
        "dist/summernote-bs5.min.js",
        "dist/summernote-bs5.min.css",
        "dist/summernote-bs5.js.map",
        "dist/summernote-bs5.js",
        "dist/summernote-bs5.css.map",
        "dist/summernote-bs5.css",
        "dist/summernote-lite.min.js",
        "dist/summernote-lite.min.css",
        "dist/summernote-lite.js.map",
        "dist/summernote-lite.js",
        "dist/summernote-lite.css.map",
        "dist/summernote-lite.css",
        "dist/plugin/specialchars/summernote-ext-specialchars.js",
        "dist/lang/summernote-en-US.min.js",
        "dist/lang/summernote-en-US.js",
        "dist/lang/summernote-en-US.js.map",
        "dist/lang/summernote-de-DE.min.js",
        "dist/lang/summernote-de-DE.js.map",
        "dist/lang/summernote-de-DE.js"
      ]
    }
  ]
}
