<?xml version="1.0" standalone="no"?>
<!DOCTYPE svg PUBLIC "-//W3C//DTD SVG 20010904//EN"
 "http://www.w3.org/TR/2001/REC-SVG-20010904/DTD/svg10.dtd">
<svg version="1.0" xmlns="http://www.w3.org/2000/svg"
 width="700.000000pt" height="700.000000pt" viewBox="0 0 700.000000 700.000000"
 preserveAspectRatio="xMidYMid meet">
<metadata>
Created by potrace 1.14, written by Peter Selinger 2001-2017
</metadata>
<g transform="translate(0.000000,700.000000) scale(0.100000,-0.100000)"
fill="#000000" stroke="none">
<path d="M85 6908 c-3 -7 -4 -1545 -3 -3418 l3 -3405 3418 -3 3417 -2 -2 3417
-3 3418 -3413 3 c-2725 2 -3414 0 -3417 -10z m4395 -1378 l0 -1080 1065 0
1065 0 0 -955 0 -955 -1062 -2 -1063 -3 -3 -1072 -2 -1073 -965 0 -965 0 0
1075 0 1075 -1070 0 -1070 0 0 955 0 955 1070 0 1070 0 0 1080 0 1080 965 0
965 0 0 -1080z"/>
<path d="M3360 4975 c-309 -63 -489 -276 -490 -578 0 -262 115 -497 504 -1027
260 -354 356 -515 391 -655 42 -167 -18 -313 -159 -385 -61 -31 -78 -35 -164
-38 -81 -3 -107 0 -153 17 -146 55 -226 194 -245 429 l-7 82 -88 0 -89 0 0
-385 0 -385 100 0 100 0 0 96 0 96 58 -50 c167 -144 300 -188 492 -162 288 38
473 182 557 435 24 73 27 94 27 235 0 140 -3 164 -27 245 -37 123 -139 324
-240 475 -46 69 -162 231 -259 360 -208 279 -275 380 -330 498 -36 74 -42 99
-46 170 -9 169 66 261 239 292 245 45 413 -129 445 -458 l7 -73 76 3 76 3 0
385 0 385 -75 0 -75 0 -3 -112 -3 -112 -85 68 c-148 119 -253 162 -394 160
-41 0 -104 -7 -140 -14z"/>
</g>
</svg>
